Angular|main|NG_CLI_IMAGE|registry.hub.docker.com/trion/ng-cli-karma:latest
Ansible|main|ANSIBLE_IMAGE|registry.hub.docker.com/cytopia/ansible:latest-tools
Amazon Web Services|main|AWS_CLI_IMAGE|registry.hub.docker.com/amazon/aws-cli:latest
Cloud Foundry|main|CF_CLI_IMAGE|registry.hub.docker.com/governmentpaas/cf-cli
Cloud Native Buildpacks|main|CNB_BUILDER_IMAGE|registry.hub.docker.com/paketobuildpacks/builder:base
Cloud Native Buildpacks|main|CNB_SNAPSHOT_IMAGE|$CI_REGISTRY_IMAGE/snapshot:$CI_COMMIT_REF_SLUG
Cloud Native Buildpacks|main|CNB_RELEASE_IMAGE|$CI_REGISTRY_IMAGE:$CI_COMMIT_REF_NAME
Cypress|main|CYPRESS_IMAGE|registry.hub.docker.com/cypress/included:12.0.2
dbt|main|DBT_IMAGE|registry.hub.docker.com/library/python:latest
DefectDojo|main|DEFECTDOJO_BASE_IMAGE|registry.hub.docker.com/library/node:alpine3.11
Docker|main|DOCKER_KANIKO_IMAGE|gcr.io/kaniko-project/executor:debug
Docker|main|DOCKER_IMAGE|registry.hub.docker.com/library/docker:latest
Docker|main|DOCKER_DIND_IMAGE|registry.hub.docker.com/library/docker:dind
Docker|main|DOCKER_SKOPEO_IMAGE|quay.io/skopeo/stable:latest
Docker|main|DOCKER_SNAPSHOT_IMAGE|$CI_REGISTRY_IMAGE/snapshot:$CI_COMMIT_REF_SLUG
Docker|main|DOCKER_RELEASE_IMAGE|$CI_REGISTRY_IMAGE:$CI_COMMIT_REF_NAME
Google Cloud|main|GCP_CLI_IMAGE|gcr.io/google.com/cloudsdktool/cloud-sdk:latest
Gitleaks|main|GITLEAKS_IMAGE|registry.hub.docker.com/zricethezav/gitleaks:latest
Go|main|GO_IMAGE|registry.hub.docker.com/library/golang:buster
Go|main|GO_TEST_IMAGE|null
Gradle|main|GRADLE_IMAGE|registry.hub.docker.com/library/gradle:latest
Helm|main|HELM_CLI_IMAGE|registry.hub.docker.com/alpine/helm:latest
k6|main|K6_IMAGE|registry.hub.docker.com/loadimpact/k6:latest
Kubernetes|main|K8S_KUBECTL_IMAGE|registry.hub.docker.com/bitnami/kubectl:latest
GNU Make|main|MAKE_IMAGE|registry.hub.docker.com/alpine/make
Maven|main|MAVEN_IMAGE|registry.hub.docker.com/library/maven:latest
MkDocs|main|MKD_IMAGE|registry.hub.docker.com/polinux/mkdocs:latest
MobSF|main|MOBSF_CLIENT_IMAGE|registry.hub.docker.com/dwdraju/alpine-curl-jq
Node.js|main|NODE_IMAGE|registry.hub.docker.com/library/node:lts-alpine
OpenShift|main|OS_CLI_IMAGE|quay.io/openshift/origin-cli:latest
PHP|main|PHP_IMAGE|registry.hub.docker.com/library/php:latest
Postman|main|POSTMAN_IMAGE|registry.hub.docker.com/postman/newman:latest
Puppeteer|main|PUPPETEER_IMAGE|ghcr.io/puppeteer/puppeteer:latest
Python|main|PYTHON_IMAGE|registry.hub.docker.com/library/python:3
Robot Framework|main|ROBOT_BASE_IMAGE|registry.hub.docker.com/ppodgorsek/robot-framework:latest
S3 (Simple Storage Service)|main|S3_CMD_IMAGE|registry.hub.docker.com/d3fk/s3cmd:latest
Scala/SBT|main|SBT_IMAGE|registry.hub.docker.com/sbtscala/scala-sbt:17.0.2_1.6.2_3.1.3
semantic-release|main|SEMREL_IMAGE|registry.hub.docker.com/library/node:latest
SonarQube|main|SONAR_SCANNER_IMAGE|registry.hub.docker.com/sonarsource/sonar-scanner-cli:latest
SQLFluff lint|main|SQLFLUFF_IMAGE|registry.hub.docker.com/sqlfluff/sqlfluff:latest
Terraform|main|TF_IMAGE|registry.hub.docker.com/hashicorp/terraform:light
Test SSL|main|TESTSSL_IMAGE|registry.hub.docker.com/drwetter/testssl.sh:latest
Ansible|feat|ANSIBLE_LINT_IMAGE|registry.hub.docker.com/haxorof/ansible-lint:latest
Bash|feat|BASH_SHELLCHECK_IMAGE|registry.hub.docker.com/koalaman/shellcheck-alpine:stable
Bash|feat|BASH_BATS_IMAGE|registry.hub.docker.com/bats/bats:latest
Cloud Native Buildpacks|feat|CNB_SKOPEO_IMAGE|quay.io/skopeo/stable:latest
Docker|feat|DOCKER_LINT_IMAGE|registry.hub.docker.com/projectatomic/dockerfile-lint:latest
Docker|feat|DOCKER_HADOLINT_IMAGE|registry.hub.docker.com/hadolint/hadolint:latest-alpine
Docker|feat|DOCKER_TRIVY_IMAGE|registry.hub.docker.com/aquasec/trivy:latest
Docker|feat|DOCKER_SBOM_IMAGE|registry.hub.docker.com/anchore/syft:debug
Go|feat|GO_CI_LINT_IMAGE|registry.hub.docker.com/golangci/golangci-lint:latest-alpine
Go|feat|GO_SBOM_IMAGE|registry.hub.docker.com/cyclonedx/cyclonedx-gomod:latest
Helm|feat|HELM_YAMLLINT_IMAGE|registry.hub.docker.com/cytopia/yamllint
Helm|feat|HELM_KUBE_SCORE_IMAGE|registry.hub.docker.com/zegl/kube-score
Kubernetes|feat|  K8S_KUBE_SCORE_IMAGE|registry.hub.docker.com/zegl/kube-score:latest-kustomize
MkDocs|feat|MKD_LYCHEE_IMAGE|registry.hub.docker.com/lycheeverse/lychee:latest
Scala/SBT|feat|SBT_SBOM_IMAGE|registry.hub.docker.com/anchore/syft:debug
Terraform|feat|TF_TFSEC_IMAGE|registry.hub.docker.com/aquasec/tfsec-ci
Terraform|feat|TF_CHECKOV_IMAGE|registry.hub.docker.com/bridgecrew/checkov
Terraform|feat|TF_INFRACOST_IMAGE|registry.hub.docker.com/infracost/infracost
Terraform|feat|TF_TFLINT_IMAGE|ghcr.io/terraform-linters/tflint:latest
